<?xml version="1.0" encoding="UTF-8" standalone="no"?>
<!DOCTYPE svg PUBLIC "-//W3C//DTD SVG 1.1//EN" "http://www.w3.org/Graphics/SVG/1.1/DTD/svg11.dtd">
<svg width="100%" height="100%" viewBox="0 0 288 294" version="1.1" xmlns="http://www.w3.org/2000/svg" xmlns:xlink="http://www.w3.org/1999/xlink" xml:space="preserve" xmlns:serif="http://www.serif.com/" style="fill-rule:evenodd;clip-rule:evenodd;stroke-linejoin:round;stroke-miterlimit:1.41421;">
    <g transform="matrix(1,0,0,1,-46.9093,-46.1788)">
        <g id="Layer-1" serif:id="Layer 1" transform="matrix(1,0,0,1,402.061,83.5255)">
            <path id="path4650" d="M-225.271,256.056C-242.979,255.751 -261.073,252.212 -277.76,245.789C-309.198,233.688 -335.697,211.773 -353.849,182.861C-355.878,179.629 -355.727,179.615 -352.04,182.696C-317.511,211.542 -271.66,223.903 -227.07,216.386C-165.127,205.945 -115.313,158.763 -101.607,97.551C-97.743,80.295 -96.879,61.983 -99.078,43.918C-101.281,25.823 -107.317,6.91 -116.13,-9.51C-117.331,-11.747 -118.256,-13.636 -118.185,-13.707C-117.842,-14.049 -110.337,-6.602 -105.624,-1.244C-83.18,24.274 -69.932,55.999 -67.409,90.268C-67.088,94.632 -67.089,107.196 -67.412,111.703C-68.945,133.133 -74.47,152.964 -84.173,171.868C-102.075,206.744 -132.701,233.663 -169.642,246.989C-187.101,253.287 -206.109,256.385 -225.271,256.056L-225.271,256.056Z" style="fill:white;fill-rule:nonzero;"/>
            <g id="path4648" transform="matrix(0.264583,0,0,0.264583,0,0)">
                <path d="M-843.224,-141.129C-843.799,-141.037 -843.561,-140.679 -842.931,-139.983C-842.182,-139.155 -839.951,-137.748 -837.97,-136.855C-834.589,-135.33 -834.366,-134.99 -834.366,-131.357C-834.366,-125.29 -834.909,-124.49 -837.865,-126.186C-839.72,-127.251 -841.557,-127.443 -845.372,-126.967C-849.602,-126.438 -850.939,-125.789 -853.616,-122.98C-856.537,-119.916 -865.209,-102.689 -865.209,-99.949C-865.209,-99.315 -862.295,-96.134 -858.737,-92.879L-852.271,-86.961L-854.269,-82.315C-855.369,-79.758 -857.416,-76.563 -858.82,-75.218L-861.372,-72.771L-865.104,-74.675C-867.156,-75.722 -868.836,-76.892 -868.836,-77.277C-868.836,-77.662 -867,-79.78 -864.755,-81.983C-862.51,-84.187 -860.675,-86.652 -860.675,-87.459C-860.675,-88.266 -861.736,-89.914 -863.033,-91.124C-864.331,-92.333 -866.575,-95.661 -868.022,-98.515C-870.298,-103.007 -870.651,-104.722 -870.651,-111.26C-870.651,-115.926 -871.064,-119.23 -871.737,-119.902C-873.253,-121.419 -877.474,-121.261 -880.755,-119.564C-884.12,-117.824 -884.656,-118.212 -883.225,-121.353C-881.116,-125.982 -883.371,-125.817 -894.453,-120.55C-903.843,-116.087 -905.614,-115.545 -910.835,-115.545C-914.931,-115.545 -917.026,-115.955 -917.816,-116.907C-920.293,-119.891 -922.031,-118.483 -924.615,-111.398C-927.037,-104.757 -927.286,-104.451 -931.984,-102.147L-936.839,-99.761L-939.397,-102.213C-942.617,-105.298 -946.723,-105.469 -949.252,-102.623C-952.684,-98.761 -959.308,-88.781 -962.052,-83.334C-964.119,-79.232 -965.613,-77.492 -968.07,-76.32C-971.108,-74.871 -971.337,-74.468 -971.337,-70.683C-971.337,-67.075 -971.65,-66.449 -974.061,-65.202C-976.511,-63.935 -976.779,-63.363 -976.779,-59.445C-976.779,-55.273 -976.534,-54.852 -970.844,-49.357C-964.041,-42.788 -963.649,-40.826 -969.078,-40.488C-979.909,-39.813 -990.388,-36.549 -990.388,-33.85C-990.388,-32.549 -988.747,-31.658 -983.085,-29.869C-979.071,-28.601 -974.48,-26.851 -972.881,-25.977C-969.995,-24.399 -970.084,-24.385 -985.399,-23.879C-998.735,-23.438 -1001.68,-23.063 -1007.17,-21.105C-1013.46,-18.862 -1013.55,-18.781 -1016.69,-12.739L-1019.86,-6.638L-1013.85,-0.77L-1007.82,5.094L-997.015,5.094C-987.547,5.094 -985.156,5.43 -977.643,7.801C-966.763,11.234 -955.231,11.615 -949.568,8.725C-941.97,4.849 -942.994,7.666 -952.884,17.86C-957.696,22.821 -959.544,25.386 -959.544,27.09C-959.544,28.388 -960.6,30.704 -961.892,32.239C-964.192,34.973 -964.407,35.029 -972.367,35.029L-980.494,35.029L-982.039,37.852C-986.318,45.667 -987.023,46.3 -994.025,48.637C-1002.68,51.525 -1002.68,51.526 -1005.43,56.953C-1007.94,61.896 -1007.8,64.056 -1004.97,64.056C-1002.71,64.056 -998.548,65.913 -998.548,66.924C-998.548,67.343 -999.584,67.683 -1000.85,67.683C-1003.6,67.683 -1012.62,72.106 -1016.46,75.34C-1020.55,78.785 -1022.64,78.319 -1028.59,72.643L-1033.85,67.627L-1045.45,67.882L-1057.05,68.137L-1059.53,72.671C-1060.89,75.166 -1062.26,78.535 -1062.58,80.156C-1063.03,82.479 -1063.61,83.102 -1065.28,83.102C-1067.66,83.102 -1072.21,81.262 -1071.82,80.455C-1071.68,80.167 -1070.41,77.744 -1069.01,75.074C-1066.29,69.899 -1066.34,67.683 -1069.19,67.683C-1070.16,67.683 -1073.54,66.461 -1076.71,64.964C-1081,62.931 -1083.76,62.241 -1087.63,62.24C-1090.85,62.24 -1095.5,61.33 -1099.88,59.843C-1105.6,57.902 -1109.36,57.332 -1119.65,56.853C-1130.86,56.332 -1132.96,55.977 -1137.63,53.792L-1142.92,51.317L-1148.42,56.643C-1153.76,61.802 -1154.57,64.056 -1151.09,64.056C-1148.76,64.056 -1145.5,66.653 -1145.5,68.502C-1145.5,69.394 -1146.29,70.841 -1147.26,71.719C-1148.23,72.597 -1149.15,74.192 -1149.31,75.262C-1149.54,76.926 -1150.33,77.277 -1154.74,77.67C-1158.85,78.037 -1160.47,78.671 -1162.68,80.787C-1166.04,84.003 -1166.06,84.388 -1163.18,87.808C-1161.94,89.29 -1160.92,91.642 -1160.92,93.039C-1160.92,94.437 -1160.31,96.089 -1159.56,96.71C-1157.38,98.523 -1157.97,99.434 -1161.34,99.434C-1164.86,99.434 -1166.87,101.847 -1165.9,104.904C-1165.31,106.746 -1163.62,107.387 -1158.2,107.805C-1154.69,108.075 -1154.21,109.679 -1157.48,110.18C-1163.67,111.128 -1161.33,119.099 -1153.72,123.025C-1151.58,124.131 -1151.57,124.198 -1153.27,125.444C-1154.33,126.221 -1156.63,126.619 -1159.1,126.457L-1163.18,126.192L-1163.64,118.479L-1164.09,110.773L-1167.28,110.501C-1169.85,110.285 -1170.99,110.775 -1173.12,112.998C-1175.68,115.669 -1176.04,115.761 -1183.75,115.761C-1191.24,115.761 -1191.91,115.922 -1194.61,118.335C-1197.6,121.011 -1197.54,123.014 -1194.46,123.014C-1193.51,123.014 -1191.26,124.308 -1189.46,125.887L-1186.19,128.76L-1182.15,126.795C-1179.92,125.715 -1177.7,124.83 -1177.22,124.83C-1176.73,124.83 -1176.34,126.801 -1176.34,129.209C-1176.34,132.755 -1175.89,134.005 -1173.98,135.786C-1172.68,136.996 -1170.23,140.74 -1168.53,144.107L-1165.43,150.231L-1159.41,150.231C-1153.95,150.231 -1153.05,149.953 -1149.67,147.213C-1147.62,145.555 -1144.24,143.248 -1142.15,142.087L-1138.34,139.972L-1135.09,142.834C-1131.92,145.611 -1131.58,145.691 -1123.25,145.691C-1118.21,145.691 -1114.66,146.063 -1114.66,146.588C-1114.66,147.079 -1117.11,148.72 -1120.1,150.231C-1125.16,152.785 -1127.33,155.673 -1124.18,155.673C-1123.43,155.673 -1122.82,156.236 -1122.82,156.924C-1122.82,157.894 -1125.32,158.279 -1133.93,158.646C-1145.07,159.121 -1155.84,161.655 -1159.45,164.648C-1160.62,165.623 -1160.92,168.509 -1161.12,180.936L-1161.37,196.039L-1170.43,196.299C-1175.41,196.443 -1179.88,196.954 -1180.36,197.434C-1180.92,197.993 -1179.97,199.606 -1177.71,201.919C-1173.65,206.078 -1173.85,207.681 -1178,204.194C-1180.45,202.125 -1181.47,201.874 -1186.46,202.112C-1191.67,202.361 -1192.18,202.572 -1192.67,204.654C-1193.02,206.182 -1193.92,207.025 -1195.42,207.234C-1197.84,207.569 -1200.5,209.59 -1201.86,212.133C-1202.54,213.401 -1202.24,213.945 -1200.46,214.758C-1199.22,215.323 -1198.08,216.649 -1197.93,217.703C-1197.73,219.088 -1196.9,219.7 -1194.94,219.901C-1190.95,220.309 -1182.28,224.807 -1181.94,226.65C-1181.7,227.982 -1182.35,228.242 -1186.02,228.244C-1193.49,228.25 -1198.51,232.563 -1197.94,238.487L-1197.65,241.393L-1189.95,241.842C-1183.16,242.242 -1182.21,242.511 -1181.91,244.112C-1181.38,246.933 -1180.17,247.258 -1170.12,247.273L-1160.73,247.29L-1163.55,249.919C-1165.09,251.367 -1166.36,253.114 -1166.36,253.8C-1166.36,256.332 -1163.6,258.847 -1158.14,261.297C-1150.63,264.667 -1143.77,264.277 -1136.2,260.046L-1130.99,257.128L-1130.99,252.206C-1130.99,247.337 -1130.95,247.29 -1128.24,247.29C-1125.76,247.29 -1125.56,247.501 -1126.09,249.609C-1126.56,251.479 -1126.3,252.033 -1124.75,252.438C-1122.32,253.072 -1122.21,255.45 -1124.6,255.45C-1126.99,255.45 -1128.26,258.089 -1128.26,263.03C-1128.26,266.05 -1128.85,267.802 -1130.53,269.801C-1133.31,273.107 -1133.34,273.698 -1130.76,276.018C-1127.36,279.073 -1126.71,279.142 -1123.82,276.71C-1122.17,275.322 -1120.2,274.488 -1118.98,274.662C-1117.24,274.909 -1116.88,275.585 -1116.64,279.035C-1116.48,281.28 -1116.04,283.438 -1115.65,283.83C-1115.27,284.222 -1112.34,283.301 -1109.14,281.787C-1104.67,279.675 -1102.05,279.036 -1097.88,279.035C-1093.69,279.035 -1088.92,277.861 -1077.16,273.942L-1061.88,268.854L-1058.3,270.476C-1053.76,272.521 -1053.47,273.031 -1055.29,275.797C-1057.15,278.638 -1056.62,279.441 -1051.1,282.241C-1046.87,284.384 -1046.63,284.703 -1046.63,288.121C-1046.63,292.448 -1047.36,292.594 -1055.46,289.859C-1062.36,287.529 -1066.7,287.787 -1067.93,290.601C-1069.09,293.252 -1071.45,293.193 -1077.85,290.363C-1085.49,286.985 -1087.49,288.653 -1095.51,305.046L-1100.4,315.044L-1105.94,317.674C-1110.88,320.023 -1111.76,320.865 -1114.07,325.469C-1115.49,328.308 -1116.38,331.064 -1116.05,331.593C-1115.72,332.139 -1112.35,332.55 -1108.25,332.55C-1101.3,332.55 -1101.05,332.627 -1101.05,334.687C-1101.05,336.079 -1102.94,338.727 -1106.49,342.311C-1110.55,346.41 -1111.93,348.451 -1111.93,350.356C-1111.93,352.245 -1113.28,354.27 -1117.12,358.151C-1122.23,363.317 -1122.39,363.394 -1127.49,363.394C-1131.67,363.394 -1133.17,363.826 -1135.33,365.636C-1138.23,368.08 -1143.67,378.596 -1143.7,381.802C-1143.7,382.903 -1144.01,384.265 -1144.38,384.825C-1145.94,387.213 -1160.98,395.924 -1166.82,397.825C-1174.62,400.364 -1175.99,401.474 -1174.6,404.086C-1172.66,407.694 -1170.29,408.164 -1166.94,405.609C-1164.51,403.752 -1162.88,403.299 -1158.57,403.278C-1151.82,403.246 -1142.7,398.804 -1141.86,395.14C-1141.35,392.916 -1141.15,392.867 -1131.66,392.615C-1122.44,392.37 -1121.73,392.489 -1116.53,395.112C-1112.38,397.209 -1109.83,397.87 -1105.84,397.891C-1101.29,397.916 -1100.81,398.079 -1102.18,399.126C-1103.06,399.789 -1103.77,400.988 -1103.77,401.789C-1103.77,403.014 -1102.3,403.282 -1094.47,403.5C-1086.16,403.731 -1085.45,403.881 -1087.73,404.895C-1089.54,405.698 -1096.55,406.03 -1111.81,406.03L-1133.33,406.03L-1138.28,408.981C-1143.17,411.896 -1143.24,411.99 -1143.68,416.914L-1144.14,421.903L-1155.02,422.357C-1164.95,422.77 -1166.35,423.046 -1170.9,425.529C-1174.88,427.701 -1175.94,428.765 -1176.18,430.8C-1176.53,433.902 -1175.27,435.545 -1170.73,437.859C-1166.76,439.883 -1166.55,440.971 -1169.12,446.025C-1171.37,450.428 -1170.97,452.016 -1166.57,456.018L-1163.18,459.091L-1171.64,459.351L-1180.09,459.617L-1185.09,455.044C-1187.84,452.53 -1190.79,450.476 -1191.64,450.476C-1192.5,450.476 -1195,452.311 -1197.2,454.556C-1201.7,459.146 -1202.58,459.405 -1204.91,456.826C-1207.02,454.497 -1209.36,454.56 -1219.77,457.231C-1229.46,459.72 -1230.79,460.565 -1229.15,463.199C-1228.07,464.92 -1228.28,464.986 -1234.61,464.998C-1238.23,465.005 -1242.11,465.256 -1243.24,465.557C-1245.76,466.235 -1245.87,468.705 -1243.46,470.883C-1242.46,471.786 -1241.65,473.453 -1241.65,474.587C-1241.65,477.273 -1240.26,478.571 -1234.54,481.248L-1229.83,483.451L-1227.05,481.391L-1224.26,479.332L-1222,481.458C-1219.79,483.531 -1219.31,483.584 -1202.8,483.584C-1186.16,483.584 -1185.77,483.54 -1180.36,481.043C-1175.85,478.956 -1173.86,478.547 -1169.25,478.773L-1163.63,479.05L-1167.16,482.903C-1169.77,485.757 -1171.38,486.756 -1173.34,486.756C-1175.13,486.756 -1176.87,487.67 -1178.66,489.563C-1182.13,493.214 -1191.2,497.766 -1200.91,500.73C-1206.36,502.39 -1209.43,503.894 -1211.24,505.779C-1213.67,508.319 -1214.25,508.48 -1222.06,508.725L-1230.31,508.979L-1230.76,513.935C-1231.16,518.303 -1231.49,518.948 -1233.49,519.416C-1235.71,519.935 -1235.75,520.121 -1235.75,528.523L-1235.75,537.099L-1231.67,537.553C-1229.14,537.834 -1228.02,538.288 -1228.73,538.743C-1229.35,539.147 -1229.86,540.265 -1229.86,541.229C-1229.86,542.562 -1227.25,544.29 -1218.99,548.432C-1205.73,555.076 -1202.08,555.416 -1189.54,551.178L-1181.55,548.476L-1178.88,550.724C-1175.48,553.58 -1174.77,553.548 -1171.39,550.375C-1168.73,547.868 -1163.96,545.719 -1161.06,545.719C-1158.79,545.719 -1164.41,551.022 -1169.54,553.703C-1173.25,555.645 -1175.72,556.171 -1183.14,556.57L-1192.21,557.058L-1192.51,559.632C-1192.68,561.121 -1192.17,562.906 -1191.3,563.867C-1189.89,565.423 -1189.91,565.592 -1191.62,566.508C-1192.63,567.047 -1194.43,567.488 -1195.62,567.488C-1196.82,567.488 -1198.62,568.409 -1199.63,569.531C-1202.79,573.045 -1202.91,573.783 -1200.43,574.724C-1197.3,575.918 -1197.51,577.392 -1200.91,578.074C-1203.69,578.63 -1217.04,586.783 -1218.23,588.654C-1219.52,590.67 -1217.66,591.073 -1207.1,591.073C-1196.84,591.073 -1195.94,590.921 -1190.85,588.35C-1186.69,586.252 -1184.25,585.631 -1180.16,585.631C-1175.54,585.631 -1174.55,585.303 -1172.42,583.084C-1171.08,581.685 -1169.99,580.054 -1169.99,579.458C-1169.99,578.126 -1169.73,578.118 -1166.98,579.369C-1165.17,580.196 -1163.72,579.887 -1158.4,577.554C-1154.88,576.008 -1151.04,574.747 -1149.86,574.747C-1148.41,574.747 -1145.67,572.683 -1141.41,568.396C-1137.95,564.904 -1134.8,562.046 -1134.41,562.046C-1134.02,562.046 -1133.7,563.386 -1133.7,565.025C-1133.7,567.431 -1134.66,568.946 -1138.66,572.903C-1143.41,577.59 -1143.87,577.818 -1149.25,578.207L-1154.87,578.611L-1162.5,586.224C-1166.69,590.41 -1169.96,594.337 -1169.76,594.949C-1169.55,595.602 -1167.33,596.17 -1164.39,596.327C-1160.26,596.549 -1158.18,596.048 -1152.44,593.432C-1146.77,590.849 -1145.65,590.575 -1146.38,591.943C-1146.88,592.865 -1148.85,594.856 -1150.76,596.372C-1153.58,598.605 -1155.34,599.212 -1160.05,599.577L-1165.86,600.031L-1173.49,607.788C-1180.12,614.546 -1180.95,615.74 -1179.9,617.006C-1178.94,618.172 -1177.25,618.397 -1171.39,618.147C-1162.44,617.763 -1153.57,613.953 -1152.73,610.124C-1152.25,607.965 -1151.85,607.832 -1144.38,607.4C-1137.38,606.995 -1136.26,606.682 -1133.94,604.455C-1131.71,602.32 -1130.58,601.958 -1126.09,601.958C-1121.6,601.958 -1120.77,601.693 -1120.36,600.142C-1120.1,599.144 -1119.55,598.332 -1119.13,598.332C-1117.47,598.332 -1113.75,600.494 -1113.75,601.46C-1113.75,602.024 -1115.59,604.289 -1117.83,606.492C-1120.08,608.696 -1121.92,611.038 -1121.92,611.697C-1121.92,612.355 -1120.68,615.333 -1119.18,618.313C-1116.64,623.344 -1116.22,623.727 -1113.34,623.727C-1110.46,623.727 -1110.01,623.319 -1107.29,618.219C-1104.75,613.445 -1103.65,612.349 -1099.1,610.052C-1094.54,607.75 -1092.84,607.4 -1086.25,607.4C-1079.24,607.4 -1078.35,607.19 -1074.89,604.682C-1072.82,603.185 -1070.61,601.958 -1069.96,601.958C-1069.32,601.958 -1068.33,603.185 -1067.77,604.682C-1066.74,607.398 -1066.73,607.4 -1059.38,607.4C-1051.07,607.4 -1050,606.562 -1052,601.598C-1054.21,596.11 -1054.18,595.809 -1051.29,594.318C-1047.21,592.204 -1046.75,592.474 -1046.45,597.197L-1046.17,601.504L-1040.19,601.77C-1034.22,602.034 -1034.2,602.023 -1030.89,598.365C-1027.3,594.386 -1026.94,592.743 -1028.94,589.257C-1029.65,588.01 -1030.25,586.686 -1030.27,586.312C-1030.28,585.938 -1027.83,585.631 -1024.82,585.631C-1020.78,585.631 -1018.18,586.222 -1014.88,587.896C-1009.54,590.599 -1007.03,590.769 -1006.3,588.471C-1005.64,586.404 -1006.92,582.809 -1008.88,581.174C-1009.69,580.51 -1010.34,579.413 -1010.34,578.738C-1010.34,577.288 -1005.77,574.747 -1003.16,574.747C-1002.15,574.747 -999.937,573.519 -998.233,572.023C-995.306,569.453 -994.705,569.304 -987.387,569.304L-979.636,569.304L-976.845,564.432C-975.312,561.752 -974.055,558.967 -974.055,558.248C-974.055,556.824 -978.614,552.075 -980.001,552.053C-980.473,552.045 -981.409,551.696 -982.077,551.272C-983.062,550.648 -982.93,549.787 -981.38,546.749C-979.69,543.437 -979.095,542.995 -976.308,542.995C-973.268,542.995 -972.17,544.1 -974.055,545.265C-975.597,546.218 -975.074,547.913 -972.295,550.957C-969.664,553.836 -969.504,553.88 -961.443,553.88C-953.498,553.88 -953.163,553.797 -949.933,550.934C-948.103,549.313 -941.86,545.535 -936.064,542.541C-926.488,537.595 -925.499,536.853 -925.229,534.381C-924.858,530.976 -920.758,526.507 -918.331,526.862C-917.275,527.017 -916.312,528.061 -916,529.392C-915.501,531.52 -915.111,531.657 -909.656,531.657C-904.2,531.657 -903.805,531.52 -903.305,529.392C-902.798,527.232 -902.424,527.112 -895.41,526.862C-891.026,526.706 -887.694,526.154 -887.178,525.5C-886.7,524.896 -885.219,521.082 -883.883,517.024C-881.233,508.971 -879.434,506.744 -874.438,505.331C-871.85,504.599 -870.575,503.403 -868.409,499.678L-865.663,494.956L-850.194,494.939C-833.827,494.922 -832.55,494.612 -832.55,490.659C-832.55,488.792 -832.124,488.572 -828.469,488.572L-824.389,488.572L-824.389,492.713C-824.389,499.758 -823.648,500.365 -815.016,500.365C-807.144,500.365 -805.352,499.619 -805.327,496.329C-805.32,495.306 -804.935,493.874 -804.475,493.145C-803.752,492.003 -803.401,492.034 -801.922,493.372C-800.131,494.994 -797.435,495.361 -795.705,494.225C-795.147,493.858 -793.572,491.316 -792.206,488.572C-790.84,485.828 -788.671,482.459 -787.384,481.087C-785.162,478.719 -784.623,478.596 -776.765,478.596C-768.81,478.596 -768.392,478.696 -765.963,481.231C-764.573,482.682 -760.994,484.968 -758.007,486.308L-752.576,488.744L-747.234,486.424L-741.897,484.11L-739.245,486.341C-735.432,489.549 -731.36,489.314 -727.601,485.671C-724.881,483.034 -724.606,482.285 -724.606,477.4C-724.606,472.725 -724.962,471.626 -727.33,468.929C-729.001,467.027 -730.054,464.829 -730.054,463.232C-730.054,461.158 -730.602,460.44 -732.773,459.683C-735.082,458.878 -735.496,458.263 -735.496,455.625C-735.496,452.884 -735.167,452.449 -732.723,451.96C-730.368,451.489 -729.548,450.516 -727.28,445.516C-725.812,442.277 -724.605,438.5 -724.601,437.117C-724.596,435.734 -723.362,432.456 -721.86,429.836C-719.798,426.24 -718.614,425.075 -717.021,425.075C-714.564,425.075 -712.824,423.31 -710.311,418.271C-706.924,411.477 -706.894,409.211 -710.117,402.664L-713.041,396.729L-710.527,391.463C-709.067,388.408 -705.783,383.996 -702.704,380.95C-697.459,375.759 -697.395,375.639 -697.395,370.486C-697.395,365.988 -697.025,364.845 -694.676,362.17C-692.346,359.516 -691.953,358.343 -691.953,353.993C-691.953,350.105 -691.272,347.53 -689.04,343.003L-686.123,337.09L-688.813,332.041C-690.292,329.264 -692.828,325.421 -694.449,323.504C-696.071,321.587 -697.395,319.424 -697.395,318.698C-697.395,317.973 -696.191,315.871 -694.721,314.02C-691.812,310.36 -691.841,309.948 -695.546,302.687C-696.562,300.694 -697.395,297.978 -697.395,296.652C-697.395,295.267 -698.555,292.924 -700.119,291.144C-702.484,288.45 -702.837,287.341 -702.837,282.695L-702.837,277.352L-708.739,274.568C-711.983,273.035 -715.671,271.777 -716.938,271.777C-719.419,271.777 -728.238,264.298 -728.238,262.194C-728.238,259.205 -725.482,258.169 -717.514,258.169C-710.677,258.168 -708.896,257.819 -703.972,255.489C-697.599,252.474 -696.886,250.753 -700.573,247.29C-702.615,245.371 -702.837,244.453 -702.837,238.088C-702.837,231.529 -702.644,230.8 -700.119,227.923C-697.068,224.449 -696.415,219.294 -698.779,217.332C-700.017,216.305 -700.011,216.015 -698.712,214.58C-697.896,213.678 -697.39,211.868 -697.555,210.439C-697.802,208.317 -698.407,207.782 -701.254,207.195C-703.127,206.808 -706.686,205.467 -709.165,204.211L-713.677,201.93L-713.927,189.002C-714.168,176.586 -714.258,176.044 -716.219,175.183C-717.864,174.461 -718.262,173.56 -718.262,170.522C-718.262,167.258 -717.955,166.674 -715.992,166.181C-714.203,165.732 -713.722,165.041 -713.722,162.892C-713.722,159.985 -714.201,159.657 -721.766,157.4C-723.945,156.75 -726.701,155.451 -727.889,154.516C-729.907,152.929 -730.054,152.222 -730.054,143.786C-730.054,136.634 -729.77,134.645 -728.703,134.236C-727.962,133.952 -724.652,134.981 -721.345,136.528C-715.685,139.177 -714.706,139.346 -704.603,139.346C-697.782,139.346 -693.651,138.978 -693.259,138.344C-692.401,136.955 -702.803,126.646 -705.079,126.629C-706.093,126.621 -707.382,126.314 -707.942,125.948C-709.313,125.051 -715.783,112.075 -715.167,111.459C-714.898,111.191 -712.461,112.496 -709.747,114.366C-704.06,118.282 -690.534,123.014 -685.026,123.014L-681.267,123.014L-673.322,107.368C-668.952,98.762 -665.114,90.495 -664.796,88.998L-664.221,86.28L-650.928,85.826C-637.983,85.384 -637.572,85.307 -635.088,82.908C-633.685,81.553 -631.119,77.791 -629.38,74.548L-626.219,68.652L-629.712,65.075C-631.634,63.107 -635.798,60.334 -638.969,58.919C-642.14,57.503 -644.746,55.92 -644.76,55.397C-644.773,54.875 -643.151,52.85 -641.156,50.902C-637.727,47.554 -637.53,47.061 -637.53,41.966C-637.53,37.194 -637.878,36.147 -640.569,32.853C-642.242,30.806 -644.325,27.748 -645.197,26.054L-646.781,22.971L-642.839,23.502C-640.216,23.854 -638.245,24.782 -636.965,26.27C-634.248,29.429 -629.302,43.443 -628.433,50.448C-627.347,59.204 -624.187,67.683 -622.005,67.683C-619.864,67.683 -618.911,65.366 -616.624,54.534C-615.676,50.044 -614.548,45.14 -614.116,43.644C-612.835,39.203 -615.27,30.631 -618.883,26.863C-620.557,25.117 -622.842,21.531 -623.96,18.89C-625.648,14.905 -625.817,13.699 -624.945,11.787C-623.513,8.643 -625.288,2.659 -627.918,1.761C-630.795,0.778 -642.955,1.301 -649.61,2.696C-652.857,3.377 -656.624,4.806 -657.981,5.874C-659.338,6.942 -661.418,7.817 -662.598,7.817C-664.555,7.817 -664.741,7.436 -664.741,3.482C-664.741,-0.638 -664.46,-1.127 -659.072,-6.406C-655.954,-9.46 -651.261,-13.029 -648.641,-14.334L-643.88,-16.703L-643.896,-23.27C-643.91,-27.743 -644.465,-31.035 -645.64,-33.623C-647.283,-37.24 -647.629,-37.469 -653.009,-38.528C-657.022,-39.317 -659.567,-40.449 -661.801,-42.442C-663.53,-43.984 -667.814,-46.675 -671.318,-48.422C-675.198,-50.355 -678.252,-52.567 -679.13,-54.08C-680.457,-56.366 -680.436,-57.075 -678.92,-62.96C-676.882,-70.871 -677.514,-72.156 -685.48,-76.403C-688.509,-78.017 -691.262,-79.784 -691.598,-80.328C-692.699,-82.11 -692.373,-90.578 -691.083,-93.693C-689.998,-96.314 -689.999,-96.886 -691.117,-97.757C-691.831,-98.313 -692.828,-99.979 -693.331,-101.46C-694.408,-104.633 -699.419,-108.292 -702.688,-108.292C-703.954,-108.292 -705.975,-107.372 -707.178,-106.249L-709.365,-104.206L-711.773,-107.047C-715.679,-111.651 -724.447,-115.545 -730.901,-115.545C-735.632,-115.545 -736.735,-115.201 -739.394,-112.865C-742.221,-110.383 -743.06,-110.159 -750.511,-109.914L-758.567,-109.654L-761.346,-104.66L-764.131,-99.672L-774.074,-99.401C-783.294,-99.15 -784.402,-99.309 -789.161,-101.571C-794.908,-104.302 -797.178,-104.025 -797.178,-100.586C-797.178,-99.309 -798.399,-95.833 -799.896,-92.868C-801.393,-89.903 -802.62,-86.279 -802.62,-84.812C-802.62,-82.948 -803.459,-81.438 -805.41,-79.796C-807.946,-77.663 -808.926,-77.449 -816.112,-77.449L-824.018,-77.449L-827.562,-73.823C-829.51,-71.827 -831.432,-70.191 -831.83,-70.191C-832.228,-70.191 -832.555,-72.776 -832.555,-75.932C-832.555,-80.839 -832.235,-81.97 -830.346,-83.744C-829.132,-84.885 -826.785,-86.092 -825.131,-86.423C-822.636,-86.924 -821.656,-87.898 -819.379,-92.165C-815.312,-99.784 -813.189,-101.606 -801.524,-107.467C-795.54,-110.474 -790.457,-113.638 -789.881,-114.715C-787.897,-118.422 -789.547,-120.933 -795.832,-123.783C-800.73,-126.004 -802.846,-126.435 -808.948,-126.435C-815.967,-126.435 -816.223,-126.508 -816.223,-128.55C-816.223,-129.738 -817.718,-132.279 -819.628,-134.341C-823.206,-138.205 -824.361,-138.586 -838.651,-140.664C-841.264,-141.044 -842.649,-141.221 -843.224,-141.129ZM-1053,367.02C-1052.54,367.02 -1052.04,368.953 -1051.89,371.311C-1051.62,375.568 -1051.59,375.602 -1047.87,376.233C-1045.81,376.582 -1041.11,378.423 -1037.44,380.324L-1030.75,383.779L-1038.46,384.294C-1044.66,384.707 -1047.24,385.359 -1051.62,387.61C-1056.36,390.052 -1057.38,391.066 -1059.54,395.5L-1062.03,400.582L-1069.07,400.582C-1072.95,400.582 -1077.44,400.965 -1079.06,401.429C-1080.68,401.893 -1082,402.081 -1082,401.85C-1082,401.619 -1080.99,399.43 -1079.75,396.983C-1077.88,393.29 -1076.53,392.027 -1071.81,389.531C-1066.89,386.927 -1066.09,386.148 -1065.85,383.69C-1065.7,382.131 -1064.58,379.915 -1063.36,378.768C-1060.94,376.497 -1060.53,374.339 -1062.21,372.662C-1062.8,372.071 -1063.11,371.471 -1062.89,371.327C-1061.57,370.45 -1053.69,367.02 -1053,367.02ZM-804.718,476.171C-804.189,476.25 -803.156,476.646 -802.072,477.211C-800.626,477.966 -798.243,478.587 -796.773,478.59L-794.099,478.596L-797.178,481.768C-798.87,483.514 -800.502,484.946 -800.804,484.946C-801.512,484.946 -805.537,476.674 -805.062,476.198C-805.012,476.149 -804.895,476.144 -804.718,476.171Z" style="fill:white;fill-rule:nonzero;"/>
            </g>
            <path id="path4646" d="M-310.04,152.814C-310.04,152.521 -310.746,152.271 -311.047,152.457C-311.2,152.552 -311.17,152.685 -310.965,152.814C-310.539,153.085 -310.04,153.084 -310.04,152.814L-310.04,152.814Z" style="fill:white;fill-rule:nonzero;"/>
            <path id="path3815" d="M-305.034,64.734C-304.787,64.578 -304.778,64.485 -304.997,64.35C-305.156,64.251 -305.46,64.346 -305.674,64.56C-305.998,64.883 -306.004,64.947 -305.711,64.944C-305.518,64.942 -305.213,64.848 -305.034,64.734L-305.034,64.734Z" style="fill:white;fill-rule:nonzero;"/>
            <path id="path3803" d="M-254.258,211.962C-254.464,211.141 -254.323,211.003 -252.651,210.377C-250.138,209.437 -248.845,207.751 -248.841,205.406C-248.84,204.977 -248.999,203.573 -249.193,202.286C-249.66,199.196 -253.351,179.064 -253.648,177.988C-254.44,175.119 -256.429,173.673 -259.586,173.669C-260.742,173.668 -260.873,173.611 -261.1,173.015C-261.292,172.51 -261.271,172.306 -261.008,172.115C-260.821,171.979 -257.78,171.343 -254.25,170.7C-248.839,169.716 -247.783,169.584 -247.517,169.86C-247.344,170.041 -243.505,176.29 -238.987,183.748C-234.469,191.206 -230.679,197.411 -230.566,197.536C-230.436,197.68 -230.272,197.676 -230.122,197.527C-229.793,197.198 -224.638,170.469 -224.369,167.695C-224.248,166.456 -224.062,165.363 -223.955,165.267C-223.847,165.171 -221.006,164.595 -217.64,163.986C-211.988,162.964 -211.497,162.91 -211.22,163.279C-210.587,164.124 -210.86,164.462 -212.718,165.14C-215.01,165.976 -215.72,166.745 -215.72,168.392C-215.72,169.438 -210.757,197.229 -210.184,199.391C-209.938,200.321 -208.838,201.427 -207.961,201.627C-207.674,201.692 -206.692,201.773 -205.779,201.807C-204.193,201.865 -204.108,201.899 -203.894,202.543C-203.771,202.914 -203.735,203.283 -203.814,203.362C-203.979,203.528 -220.131,206.53 -220.914,206.541C-221.272,206.546 -221.476,206.356 -221.587,205.913C-221.675,205.564 -221.659,205.2 -221.553,205.104C-221.447,205.009 -220.553,204.69 -219.566,204.396C-217.528,203.789 -216.359,202.794 -216.107,201.451C-215.952,200.623 -221.294,170.638 -221.662,170.27C-221.762,170.17 -221.965,170.165 -222.114,170.258C-222.263,170.352 -224.022,178.528 -226.025,188.428C-228.027,198.328 -229.724,206.667 -229.796,206.96C-229.999,207.78 -230.859,207.934 -231.373,207.241C-231.608,206.926 -236.055,199.54 -241.256,190.828C-246.562,181.942 -250.882,174.954 -251.097,174.911C-251.32,174.865 -251.48,174.993 -251.48,175.217C-251.48,175.981 -246.683,201.66 -246.299,202.948C-245.777,204.705 -245.189,205.811 -244.362,206.593C-243.437,207.467 -242.606,207.744 -240.395,207.915C-238.405,208.068 -237.952,208.326 -238.081,209.23C-238.156,209.753 -238.507,209.843 -245.6,211.15C-249.692,211.904 -253.281,212.527 -253.575,212.535C-253.949,212.544 -254.155,212.371 -254.258,211.962L-254.258,211.962ZM-169.764,181.823C-170.19,181.353 -170.188,181.319 -169.713,180.676C-168.539,179.088 -168.124,177.913 -168.125,176.188C-168.128,174.291 -167.912,174.872 -177.597,150.655L-182.625,138.081L-181.968,137.395C-181.606,137.017 -181.185,136.708 -181.031,136.708C-180.878,136.708 -172.963,140.479 -163.442,145.087C-153.922,149.696 -145.739,153.596 -145.259,153.755C-143.968,154.181 -142.104,153.939 -140.524,153.139C-139.446,152.593 -139.054,152.497 -138.732,152.7C-137.782,153.299 -138.266,153.892 -144.288,159.512L-150.255,165.081L-150.868,164.469L-151.481,163.856L-150.633,162.821C-148.695,160.457 -148.38,159.462 -149.3,158.614C-150.031,157.941 -158.557,153.703 -158.996,153.795C-159.582,153.918 -169.64,163.409 -169.64,163.84C-169.64,164.866 -166.536,171.44 -165.487,172.634C-164.972,173.221 -164.593,173.427 -164.035,173.423C-163.115,173.416 -161.579,172.741 -160.15,171.715C-159.112,170.97 -159.071,170.961 -158.602,171.386C-158.337,171.626 -158.12,171.957 -158.12,172.122C-158.12,172.516 -168.58,182.308 -169.001,182.308C-169.179,182.308 -169.523,182.09 -169.764,181.823L-169.764,181.823ZM-165.936,156.888C-163.491,154.614 -161.73,152.796 -161.77,152.59C-161.829,152.287 -176.344,145.108 -176.898,145.108C-176.998,145.108 -177.08,145.278 -177.08,145.486C-177.08,145.92 -171.365,160.188 -171.003,160.658C-170.871,160.829 -170.631,160.937 -170.468,160.898C-170.305,160.86 -168.265,159.055 -165.936,156.888L-165.936,156.888ZM-120.26,117.938C-121.062,117.658 -121.063,117.616 -120.313,115.267C-119.581,112.975 -119.755,111.859 -120.987,110.952C-121.805,110.35 -148.109,98.49 -149.976,97.881C-150.98,97.554 -151.149,97.561 -151.976,97.953C-152.545,98.223 -153.382,99.036 -154.239,100.151C-155.432,101.703 -155.673,101.903 -156.197,101.775C-157.132,101.548 -157.16,101.233 -156.394,99.534C-156.001,98.662 -154.379,95.032 -152.791,91.468C-151.202,87.904 -149.824,84.902 -149.728,84.797C-149.503,84.55 -148.278,85.102 -148.285,85.447C-148.288,85.59 -148.504,86.511 -148.765,87.492C-149.423,89.963 -149.383,90.48 -148.46,91.478C-147.816,92.174 -145.253,93.408 -133.76,98.56C-126.104,101.991 -119.391,104.914 -118.843,105.056C-118.027,105.267 -117.694,105.24 -116.996,104.909C-116.216,104.539 -114.691,102.803 -113.99,101.488C-113.668,100.883 -113.062,100.794 -112.427,101.259C-112.033,101.546 -112.27,102.169 -115.645,109.719C-117.648,114.201 -119.357,117.936 -119.443,118.018C-119.529,118.101 -119.897,118.065 -120.26,117.938L-120.26,117.938Z" style="fill:white;fill-rule:nonzero;"/>
        </g>
    </g>
</svg>
