<?xml version="1.0" encoding="UTF-8" standalone="no"?>
<!DOCTYPE svg PUBLIC "-//W3C//DTD SVG 1.1//EN" "http://www.w3.org/Graphics/SVG/1.1/DTD/svg11.dtd">
<svg width="100%" height="100%" viewBox="0 0 200 200" version="1.1" xmlns="http://www.w3.org/2000/svg" xmlns:xlink="http://www.w3.org/1999/xlink" xml:space="preserve" xmlns:serif="http://www.serif.com/" style="fill-rule:evenodd;clip-rule:evenodd;stroke-linejoin:round;stroke-miterlimit:1.41421;">
    <path d="M61.2,100L100,138.8L138.8,100L100,61.2L61.2,100ZM100,133.2L66.8,100L100,66.8L133.2,100L100,133.2ZM153,78L153,47L122,47L100,25L78,47L47,47L47,78L25,100L47,122L47,153L78,153L100,175L122,153L153,153L153,122L175,100L153,78ZM149,51L149,74L126,51L149,51ZM149,79.8L149,120.4L120.2,149L79.8,149L51,120.2L51,79.8L79.6,51.2L120.2,51.2L149,79.8ZM100,30.8L116.2,47L83.8,47L100,30.8ZM51,51L74,51L51,74L51,51ZM30.8,100L47,83.8L47,116.4L30.8,100ZM51,149L51,126L74,149L51,149ZM100,169.2L83.8,153L116.4,153L100,169.2ZM149,149L126,149L149,126L149,149ZM153,83.8L169.2,100L153,116.2L153,83.8ZM165.6,72.8L165.6,34.4L127.2,34.4L100,7.2L72.8,34.4L34.4,34.4L34.4,72.8L7.2,100L34.4,127.2L34.4,165.6L72.8,165.6L100,192.8L127.2,165.6L165.6,165.6L165.6,127.2L192.8,100L165.6,72.8ZM161.6,125.6L161.6,161.8L125.6,161.8L100,187.2L74.4,161.6L38.4,161.6L38.4,125.6L12.8,100L38.4,74.4L38.4,38.4L74.6,38.4L100,12.8L125.6,38.4L161.8,38.4L161.8,74.6L187.2,100L161.6,125.6ZM85.2,100C85.2,108.2 91.8,114.8 100,114.8C108.2,114.8 114.8,108.2 114.8,100C114.8,91.8 108.2,85.2 100,85.2C91.8,85.2 85.2,91.8 85.2,100ZM110.8,100C110.8,106 106,110.8 100,110.8C94,110.8 89.2,106 89.2,100C89.2,94 94,89.2 100,89.2C106,89.2 110.8,94 110.8,100Z" style="fill-rule:nonzero;"/>
</svg>
