{
    "main": {
        "text": {
            "color": "rgba(30,30,30,1)",
            "color2": "rgba(30,30,30,1)",
            "size": "48px",
            "size2": "48px",
            "weight": 400,
            "weight2": 400,
            "family": "Cairo"
        },
        "background": {
            "color": "rgba(255, 102, 0, .25)",
            "color2": "rgba(255, 102, 0, .5)",
            "type": "radial",
            "image": "bg.png"        
        },
        "border": {
            "width": "0",
            "style": "solid",
            "color": "rgba(100,175,100,1)"
        },
        "extra": {
            "text-decoration": "none"
        }
    },
    "header": {
        "text": {
            "color": "#B89D8C",
            "color2": "rgba(50,50,50,.35)",
            "size": "36px",
            "size2": "36px",
            "weight": 400,
            "weight2": 400,
            "family": "Cairo"
        },
        "background": {
            "color": "rgba(30,30,30,.35)",
            "color2": "rgba(30,30,30,.015)",
            "type": "linear"   
        },
        "border": {
            "width": "0 0 1px 0",
            "style": "none",
            "color": "rgba(30,30,30,.5)"
        },
        "extra": {
            "font-weight": "500"
        }
    },
    "clock": {
        "text": {
            "color": "rgba(30,30,30,1)",
            "color2": "rgba(30,30,30,1)",
            "size": "160px",
            "size2": "40px",
            "weight": 300,
            "weight2": 400,
            "family": "Cairo"
        },
        "background": {
            "color": "rgba(30,30,30,0)",
            "color2": "rgba(30,30,30,.0)",
            "type": "linear"   
        },
        "border": {
            "width": "0 0 1px 0",
            "style": "none",
            "color": "rgba(30,30,30,.5)"
        },
        "extra": {
            "align-self": "flex-end",
            "color": "rgba(0,0,0,.75)",
            "text-shadow": "0 0 10px rgba(0,0,0,.5)",
            "padding-top": "8.5rem"
        }
    },
    "prayers": {
        "text": {
            "color": "rgba(30,30,30,1)",
            "color2": "rgba(30,30,30,1)",
            "size": "52px",
            "size2": "52px",
            "weight": 400,
            "weight2": 400,
            "family": "Cairo"
        },
        "background": {
            "color": "rgba(30,30,30,0)",
            "color2": "rgba(30,30,30,.0)",
            "type": "linear"   
        },
        "border": {
            "width": "0 0 10px 0",
            "style": "solid",
            "color": "rgba(30,30,30,.1)"
        },
        "extra": {
            "text-decoration": "none"
        }
    },
    "prayer": {
        "text": {
            "color": "rgba(30,30,30,1)",
            "color2": "rgba(30,30,30,1)",
            "size": "52px",
            "size2": "52px",
            "weight": 400,
            "weight2": 700,
            "family": "Cairo"
        },
        "background": {
            "color": "rgba(30,30,30,0)",
            "color2": "rgba(30,30,30,.15)",
            "type": "linear"   
        },
        "border": {
            "width": "0 0 1px 0",
            "style": "solid",
            "color": "rgba(30,30,30,.5)"
        },
        "extra": {
            "text-decoration": "none"
        }
    },
    "countdown": {
        "text": {
            "color": "rgba(30,30,30,1)",
            "color2": "rgba(30,30,30,1)",
            "size": "52px",
            "size2": "52px",
            "weight": 400,
            "weight2": 400,
            "family": "Cairo"
        },
        "background": {
            "color": "rgba(30,30,30,0)",
            "color2": "rgba(30,30,30,.0)",
            "type": "linear"   
        },
        "border": {
            "width": "2px 0 1px 0",
            "style": "solid",
            "color": "rgba(30,30,30,.25)"
        },
        "extra": {
            "text-decoration": "none"
        }
    },
    "message": {
        "text": {
            "color": "rgba(30,30,30,1)",
            "color2": "rgba(30,30,30,1)",
            "size": "36px",
            "size2": "32px",
            "weight": 400,
            "weight2": 400,
            "family": "Cairo"
        },
        "background": {
            "color": "rgba(30,30,30,0)",
            "color2": "rgba(30,30,30,.0)",
            "type": "linear"   
        },
        "border": {
            "width": "0 0 1px 0",
            "style": "solid",
            "color": "rgba(30,30,30,.5)"
        },
        "extra": {
            "text-decoration": "none"
        }
    },
    "footer": {
        "text": {
            "color": "rgba(30,30,30,1)",
            "color2": "rgba(30,30,30,.25)",
            "size": "32px",
            "size2": "16px",
            "weight": 400,
            "weight2": 400,
            "family": "Cairo"
        },
        "background": {
            "color": "rgba(30,30,30,.05)",
            "color2": "rgba(30,30,30,.15)",
            "type": "linear"   
        },
        "border": {
            "width": "1px 0 0 0",
            "style": "solid",
            "color": "rgba(30,30,30,.5)"
        },
        "extra": {
            "text-decoration": "none"
        }
    },
    "overlay": {
        "text": {
            "color": "rgba(250,215,210,.5)",
            "color2": "rgba(250,215,210,1)",
            "size": "24px",
            "size2": "24px",
            "weight": "inherit",
            "weight2": "inherit",
            "family": "Cairo"
        },
        "background": {
            "color": "rgba(30,30,30,.95)",
            "color2": "rgba(30,30,30,.25)",
            "type": "linear"   
        },
        "border": {
            "width": "1px 0 0 0",
            "style": "solid",
            "color": "rgba(30,30,30,.75)"
        },
        "extra": {
            "text-decoration": "none"
        }
    }
}
